%YAML 1.1
%TAG !u! tag:unity3d.com,2011:
--- !u!1045 &1
EditorBuildSettings:
  m_ObjectHideFlags: 0
  serializedVersion: 2
  m_Scenes:
  - enabled: 1
    path: Assets/HoloToolkit-Examples/SharingWithUNET/Scenes/sharingwithunet.unity
    guid: 2cb8a97d98d81224c8b7d0495d361558
